Program Blocks with Simple Linear Regression – Stan PMx
…
All 4 chains finished successfully.
Mean chain execution time: 0.1 seconds.
Total execution time: 0.1 seconds.

5.4 Posterior Summary

Look at the posterior summary:

fit_return_mu$summary() 

# A tibble: 34 × 10
   variable   mean median    sd   mad     q5    q95  rhat ess_bulk ess_tail
   <chr>     <dbl>  <dbl> <dbl> <dbl>  <dbl>  <dbl> <dbl>    <dbl>    <dbl>
 1 lp__     -66.0  -65.7  1.27  0.999 -68.5  -64.7   1.00    1336.    1665.
 2 alpha     -5.49  -5.62 9.20  8.90  -20.2    9.86  1.00    1169.    1223.
 3 beta       3.29   3.30 0.384 0.371   2.65   3.91  1.00    1176.    1223.
 4 sigma      5.92   5.83 0.815 0.799   4.77   7.40  1.00    1594.    1727.
 5 mu[1]     78.6   78.6  1.26  1.22   76.6   80.7   1.00    2734.    2503.
 6 mu[2]     71.9   71.9  1.06  1.04   70.2   73.6   1.00    3980.    2155.
 7 mu[3]     83.0   83.0  1.60  1.54   80.4   85.6   1.00    1972.    2139.
 8 mu[4]     76.0   76.0  1.12  1.09   74.2   77.8   1.00    3629.    2618.
 9 mu[5]     92.1   92.1  2.50  2.41   88.1   96.3   1.00    1444.    1487.
10 mu[6]     70.6   70.6  1.08  1.06   68.9   72.4   1.00    3498.    2477.
# ℹ 24 more rows
…
All 4 chains finished successfully.
Mean chain execution time: 0.1 seconds.
Total execution time: 0.1 seconds.

6.3 Posterior Summary

Look at the posterior summary:

fit_function_mu$summary() 

# A tibble: 34 × 10
   variable   mean median    sd   mad     q5    q95  rhat ess_bulk ess_tail
   <chr>     <dbl>  <dbl> <dbl> <dbl>  <dbl>  <dbl> <dbl>    <dbl>    <dbl>
 1 lp__     -66.0  -65.7  1.27  0.999 -68.5  -64.7   1.00    1336.    1665.
 2 alpha     -5.49  -5.62 9.20  8.90  -20.2    9.86  1.00    1169.    1223.
 3 beta       3.29   3.30 0.384 0.371   2.65   3.91  1.00    1176.    1223.
 4 sigma      5.92   5.83 0.815 0.799   4.77   7.40  1.00    1594.    1727.
 5 mu[1]     78.6   78.6  1.26  1.22   76.6   80.7   1.00    2734.    2503.
 6 mu[2]     71.9   71.9  1.06  1.04   70.2   73.6   1.00    3980.    2155.
 7 mu[3]     83.0   83.0  1.60  1.54   80.4   85.6   1.00    1972.    2139.
 8 mu[4]     76.0   76.0  1.12  1.09   74.2   77.8   1.00    3629.    2618.
 9 mu[5]     92.1   92.1  2.50  2.41   88.1   96.3   1.00    1444.    1487.
10 mu[6]     70.6   70.6  1.08  1.06   68.9   72.4   1.00    3498.    2477.
# ℹ 24 more rows
…
All 4 chains finished successfully.
Mean chain execution time: 0.1 seconds.
Total execution time: 0.3 seconds.

7.3 Posterior Summary

Look at the posterior summary:

fit_gq$summary() 

# A tibble: 296 × 10
   variable   mean median    sd   mad     q5    q95  rhat ess_bulk ess_tail
   <chr>     <dbl>  <dbl> <dbl> <dbl>  <dbl>  <dbl> <dbl>    <dbl>    <dbl>
 1 lp__     -66.1  -65.7  1.32  0.999 -68.5  -64.7   1.00    1012.    1252.
 2 alpha     -5.11  -4.90 9.32  9.31  -20.1   10.2   1.01    1182.     768.
 3 beta       3.27   3.27 0.389 0.390   2.65   3.89  1.01    1212.     768.
 4 sigma      5.86   5.76 0.830 0.777   4.69   7.35  1.00    1490.    1428.
 5 mu[1]     78.6   78.6  1.28  1.25   76.5   80.8   1.00    2814.    2848.
 6 mu[2]     71.9   71.9  1.09  1.08   70.1   73.7   1.00    3772.    2498.
 7 mu[3]     83.0   83.0  1.61  1.58   80.4   85.7   1.00    1960.    2155.
 8 mu[4]     76.0   76.0  1.14  1.11   74.1   77.9   1.00    3644.    2617.
 9 mu[5]     92.1   92.1  2.52  2.45   88.0   96.3   1.00    1460.     882.
10 mu[6]     70.7   70.7  1.11  1.11   68.9   72.5   1.00    3357.    2422.
# ℹ 286 more rows
…
All 4 chains finished successfully.
Mean chain execution time: 0.1 seconds.
Total execution time: 0.2 seconds.

8.3 Posterior Summary

Look at the posterior summary:

fit_td$summary() 

# A tibble: 296 × 10
   variable   mean median    sd   mad     q5    q95  rhat ess_bulk ess_tail
   <chr>     <dbl>  <dbl> <dbl> <dbl>  <dbl>  <dbl> <dbl>    <dbl>    <dbl>
 1 lp__     -69.0  -68.7  1.28  1.03  -71.5  -67.6   1.00    1915.    2258.
 2 alpha     73.0   73.0  1.08  1.06   71.2   74.7   1.00    3689.    3079.
 3 beta       3.29   3.29 0.410 0.394   2.62   3.96  1.00    3859.    2817.
 4 sigma      5.92   5.82 0.844 0.796   4.73   7.45  1.00    3624.    2676.
 5 mu[1]     78.5   78.5  1.28  1.27   76.4   80.6   1.00    3804.    3029.
 6 mu[2]     71.7   71.7  1.09  1.07   70.0   73.5   1.00    3619.    2964.
 7 mu[3]     82.9   82.9  1.64  1.62   80.2   85.5   1.00    3818.    3138.
 8 mu[4]     75.9   75.8  1.14  1.11   74.0   77.7   1.00    3802.    3037.
 9 mu[5]     92.0   92.1  2.61  2.55   87.7   96.2   1.00    3844.    2838.
10 mu[6]     70.5   70.5  1.12  1.11   68.7   72.3   1.00    3580.    2917.
# ℹ 286 more rows
…
All 4 chains finished successfully.
Mean chain execution time: 0.1 seconds.
Total execution time: 0.3 seconds.

9.3 Posterior Summary

Look at the posterior summary:

fit_sb$summary() 

# A tibble: 195 × 10
   variable   mean median    sd   mad     q5    q95  rhat ess_bulk ess_tail
   <chr>     <dbl>  <dbl> <dbl> <dbl>  <dbl>  <dbl> <dbl>    <dbl>    <dbl>
 1 lp__     -66.1  -65.7  1.32  0.999 -68.5  -64.7   1.00    1012.    1252.
 2 alpha     -5.11  -4.90 9.32  9.31  -20.1   10.2   1.01    1182.     768.
 3 beta       3.27   3.27 0.389 0.390   2.65   3.89  1.01    1212.     768.
 4 sigma      5.86   5.76 0.830 0.777   4.69   7.35  1.00    1490.    1428.
 5 mu[1]     78.6   78.6  1.28  1.25   76.5   80.8   1.00    2814.    2848.
 6 mu[2]     71.9   71.9  1.09  1.08   70.1   73.7   1.00    3772.    2498.
 7 mu[3]     83.0   83.0  1.61  1.58   80.4   85.7   1.00    1960.    2155.
 8 mu[4]     76.0   76.0  1.14  1.11   74.1   77.9   1.00    3644.    2617.
 9 mu[5]     92.1   92.1  2.52  2.45   88.0   96.3   1.00    1460.     882.
10 mu[6]     70.7   70.7  1.11  1.11   68.9   72.5   1.00    3357.    2422.
# ℹ 185 more rows
…
